{
  "version": 1,
  "serviceConfiguration": {
    "apiName": "mealplanner",
    "serviceName": "AppSync",
    "gqlSchemaPath": "/Users/ahveatch/DEV/meal-planner/amplify/backend/api/mealplanner/schema.graphql",
    "defaultAuthType": {
      "mode": "AMAZON_COGNITO_USER_POOLS",
      "cognitoUserPoolId": "authmealplannere607c6ec"
    },
    "conflictResolution": {},
    "additionalAuthTypes": []
  }
}